block,session,subject,test,variant,app install,locale,timestamp (utc),type,total time (ms)
73,,518d5485-f31d-4f3f-a9db-7f8707b77aff,clock,default,6ac64e14,en,2012-08-07T18:57:25.280312,freeform,3684
74,,4db77d4f-e02d-4ba0-b951-0b7a773e37d8,clock,default,cd281b4d,en,2012-08-07T20:03:58.919875,freeform,24717
75,,9641cb67-b324-4907-8a40-1c8d0e861900,clock,default,cd281b4d,en,2012-08-07T21:14:28.878197,freeform,49175
76,,050bddb6-7a35-48df-b2fc-96ad26edff0c,clock,default,cd281b4d,en,2012-08-07T22:57:13.751008,freeform,7030
77,,050bddb6-7a35-48df-b2fc-96ad26edff0c,clock,default,cd281b4d,en,2012-08-07T22:58:04.537815,freeform,29298
78,,f3fa02d6-8c97-46c2-824d-ddc05be4e187,clock,default,cd281b4d,en,2012-08-08T21:24:27.150353,freeform,40138
79,,62818b16-297c-4c8b-b22b-cab7871ed7b4,clock,default,cd281b4d,en,2012-08-09T14:26:49.341900,freeform,37584
80,,a11dc185-f636-4b12-82f9-8db64fc32e95,clock,default,cd281b4d,en,2012-08-09T17:40:12.994544,freeform,50991
81,,ef9b1d14-7751-4ebd-bcd5-4b4b357a9f57,clock,default,cd281b4d,en,2012-08-09T20:48:47.047963,freeform,27864
82,,257f78a6-2ea1-4ffe-94ef-43cbeebac119,clock,default,cd281b4d,en,2012-08-09T22:13:34.000097,freeform,28310
83,,99e84b72-ce64-4030-93a2-5b684e5bd123,clock,default,cd281b4d,en,2012-08-10T15:48:07.121759,freeform,51164
84,,8edfed66-d08d-43d2-a59a-1861013be0ed,clock,default,cd281b4d,en,2012-08-10T17:24:32.485353,freeform,52654
85,,79dec8be-8f13-465c-95b3-c4f0502be2a8,clock,default,cd281b4d,en,2012-08-10T19:37:07.547848,freeform,25872
86,,6a53825d-72e0-4051-86fd-8f25041e7494,clock,default,cd281b4d,en,2012-08-13T14:35:49.589035,freeform,76091
87,,518d5485-f31d-4f3f-a9db-7f8707b77aff,clock,default,6ac64e14,en,2012-09-20T18:22:49.213625,freeform,30794
